{
  "Servers": {
    "1": {
      "Name": "postgres",
      "Group": "Servers",
      "Host": "postgres",
      "Port": 5432,
      "MaintenanceDB": "postgres",
      "Username": "postgres",
      "SSLMode": "prefer",
      "SSLCompression": 0,
      "Timeout": 0,
      "UseSSHTunnel": 0,
      "TunnelAuthentication": 0
    }
  }
}